{
    "index": {
        "download_fdroid": "F-Droid letöltése",
        "introduction": "Az F-Droid szabad és nyílt forráskódú alkalmazások telepíthető katalógusa az Android platformhoz. A kliens egyszerűvé teszi a böngészést, a telepítést és a frissítések nyomon követését az eszközén.",
        "gpg_signature": "PGP aláírás",
        "screenshot": "F-Droid Android alkalmazás képernyőkép",
        "title": "Mi az F-Droid?"
    },
    "navigation": {
        "about": "Névjegy",
        "documentation": "Dokumentáció",
        "forum": "Fórum",
        "browse": "Tallózás",
        "contribute": "Közreműködés",
        "repomaker": "Repomaker",
        "tutorials": "Oktatóanyagok",
        "news": "Hírek",
        "issues": "Problémák"
    },
    "package": {
        "website": "Weboldal",
        "license": "Licenc",
        "minimum_android_version": "Ez a verzió Android [android_version] vagy újabb verziót igényel.",
        "new_in_version": "Újdonságok a(z) [latest_version]. verzióban",
        "liberapay": "Liberapay",
        "flattr": "Flattr",
        "build_metadata": "Összeállítási metaadatok",
        "changelog": "Változásnapló",
        "suggest_downloading_via_fdroid": "Habár az APK letöltések elérhetők lent választási lehetőségként, tisztában kell lennie azzal, hogy az ily módon történt telepítés nem kap frissítési értesítéseket, és kevésbé biztonságos módja a letöltésnek. Azt javasoljuk, hogy telepítse az F-Droid klienst, és azt használja.",
        "author": "Szerző",
        "version_info": "<b>Verzió: [package_version]</b> ([package_version_code]) – hozzáadva: [package_added_date]",
        "signed_by_developer": "Az eredeti fejlesztő állította össze és írta alá.",
        "gpg_signature": "PGP aláírás",
        "signed_by_fdroid": "Az F-Droid állította össze és írta alá, és garantáltan megfelel <a href=\"[source_code_url]\">ennek a forráscsomagnak</a>.",
        "packages": "Csomagok",
        "download": "[file_extension] letöltése",
        "source_code": "Forráskód",
        "donate": "Adományozás",
        "technical_info": "Technikai információk",
        "issue_tracker": "Problémakövető",
        "permissions": "Engedélyek"
    },
    "sidebars": {
        "latest_packages": {
            "heading": "Legfrissebb alkalmazások"
        },
        "news": {
            "heading": "Hírek"
        },
        "search": {
            "noscript": "JavaScript engedélyezése szükséges",
            "search": "Keresés",
            "heading": "Alkalmazások keresése"
        },
        "donate": {
            "bank_transfer_name": "Név",
            "bitcoin_alt": "Adományozás Bitcoin használatával",
            "powered_by_donations": "Az F-Droid az Ön adományából tartja fenn magát!",
            "via_bank_transfer": "Banki átutalás",
            "litecoin_alt": "Adományozás Litecoin használatával",
            "flattr_alt": "Adományozás Flattr használatával",
            "paypal_alt": "Adományozás PayPal használatával",
            "liberapay_alt": "Adományozás Liberapay használatával",
            "heading": "Adományozás",
            "hellotux": "👕 Pólók 👕 innen:",
            "hellotux_alt": "HELLOTUX",
            "hellotux_donation": "Az F-Droid 3 €-t kap minden eladott póló után."
        },
        "last_updated": {
            "heading": "Utoljára frissítve"
        }
    }
}
