{
    "index": {
        "download_fdroid": "Descarcă F-Droid",
        "introduction": "F-Droid este un catalog instalabil de aplicații FOSS (software liber și cu sursă deschisă) pentru platforma Android. Clientul ușurează căutarea, instalarea și ținerea evidenței actualizărilor pe dispozitivul dumneavoastră.",
        "gpg_signature": "Semnătură PGP",
        "screenshot": "Captura de ecran aplicația F-Droid",
        "title": "Ce este F-Droid?"
    },
    "navigation": {
        "about": "Despre",
        "documentation": "Documentație",
        "forum": "Forum",
        "browse": "Răsfoiți",
        "contribute": "Contribuție",
        "repomaker": "Repomaker",
        "tutorials": "Tutoriale",
        "news": "Știri",
        "issues": "Listă probleme"
    },
    "package": {
        "website": "SIte",
        "permissions": "Permisiuni",
        "donate": "Donează",
        "liberapay": "Liberapay",
        "technical_info": "Informații tehnice",
        "build_metadata": "Creează metadata",
        "author": "Autor",
        "new_in_version": "Noutăți în versiunea [latest_version]",
        "version_info": "<b>Versiunea [package_version]</b> ([package_version_code]) - Adăugată pe [package_added_date]",
        "changelog": "Listă schimbări",
        "issue_tracker": "Listă probleme",
        "signed_by_developer": "Este compilat și semnat de către programatorii inițiali.",
        "gpg_signature": "Semnătură PGP",
        "signed_by_fdroid": "Este compilat și semnat de către F-Droid, și este garantat să corespundă cu <a href=\"[source_code_url]\">această arhivă ce conține codul sursă</a>.",
        "packages": "Pachete",
        "download": "Descarcă [file_extension]",
        "license": "Licență",
        "minimum_android_version": "Această versiune necesită Android [android_version] sau mai nou.",
        "suggest_downloading_via_fdroid": "Cu toate că fișierele APK sunt disponibile mai jos, pentru a vă ajuta, trebuie să știți că instalând în acest fel nu veți primi notificări de actualizare și este un mod mai puțin sigur de a descărca. Vă recomandăm să instalați și să utilizați clientul F-Droid.",
        "source_code": "Cod sursă",
        "flattr": "Flattr",
        "anti_features": "Caracteristici neplăcute",
        "anti_features_warning": "Această aplicație are caracteristici ce ar putea să nu vă placă"
    },
    "sidebars": {
        "latest_packages": {
            "heading": "Cele mai noi aplicații"
        },
        "news": {
            "heading": "Știri"
        },
        "search": {
            "noscript": "Necesită activare JavaScript",
            "search": "Caută",
            "heading": "Caută aplicații"
        },
        "donate": {
            "bank_transfer_name": "Nume",
            "bitcoin_alt": "Donează Bitcoin",
            "powered_by_donations": "F-Droid este alimentat de donațiile dumneavoastră!",
            "via_bank_transfer": "Transfer bancar",
            "litecoin_alt": "Donează Litecoin",
            "flattr_alt": "Donează prin Flattr",
            "paypal_alt": "Donează prin PayPal",
            "liberapay_alt": "Donează prin Liberapay",
            "heading": "Donează",
            "hellotux": "👕 Tricouri 👕 de la",
            "hellotux_alt": "HELLOTUX",
            "hellotux_donation": "F-Droid va primi 3€ la fiecare tricou vândut."
        },
        "last_updated": {
            "heading": "Ultimele actualizări"
        }
    }
}
