{
    "index": {
        "download_fdroid": "Descargar F-Droid",
        "introduction": "F-Droid es un catálogo instalable de aplicaciones de software libre (FOSS, «Free and Open Source Software») para Android. El cliente facilita la navegación, la instalación y el seguimiento de las actualizaciones en su dispositivo.",
        "gpg_signature": "Firma PGP",
        "screenshot": "Capturas de pantalla de F-Droid para Android",
        "title": "¿Qué es F-Droid?"
    },
    "navigation": {
        "about": "Acerca de",
        "documentation": "Documentos",
        "forum": "Foro",
        "browse": "Consultar",
        "contribute": "Contribuir",
        "repomaker": "Repomaker",
        "tutorials": "Tutoriales",
        "news": "Noticias",
        "issues": "Incidencias"
    },
    "package": {
        "anti_features_warning": "Esta aplicación tiene características que podrían no gustarte.",
        "website": "Sitio web",
        "permissions": "Permisos",
        "donate": "Donar",
        "liberapay": "Liberapay",
        "technical_info": "Información técnica",
        "build_metadata": "Metadatos de construcción",
        "author": "Autor",
        "new_in_version": "Novedades en la versión [latest_version]",
        "version_info": "<b>Versión [package_version]</b> ([package_version_code]) - Añadida el [package_added_date]",
        "changelog": "Historial de cambios",
        "issue_tracker": "Sistema de incidencias",
        "signed_by_developer": "Compilada y firmada por el desarrollador original.",
        "gpg_signature": "Firma PGP",
        "signed_by_fdroid": "Compilada y firmada por F-Droid, y garantizada su correspondencia con <a href=\"[source_code_url]\">este paquete de fuentes</a>.",
        "packages": "Paquetes",
        "download": "Descargar [file_extension]",
        "license": "Licencia",
        "minimum_android_version": "Esta versión requiere Android [android_version]  o superior.",
        "suggest_downloading_via_fdroid": "Aunque las descargas APK estén disponibles abajo para tu elección, deberías saber que al instalar de este modo no recibirás notificaciones de actualizaciones, y que es una forma de descarga menos segura. Recomendamos que instales y uses el cliente de F-Droid.",
        "source_code": "Código fuente",
        "flattr": "Flattr"
    },
    "sidebars": {
        "latest_packages": {
            "heading": "Últimas aplicaciones"
        },
        "news": {
            "heading": "Noticias"
        },
        "search": {
            "noscript": "Requiere que se habilite JavaScript",
            "search": "Buscar",
            "heading": "Buscar aplicaciones"
        },
        "donate": {
            "bank_transfer_name": "Nombre",
            "bitcoin_alt": "Donar vía Bitcoin",
            "powered_by_donations": "¡F-Droid se mantiene gracias a las donaciones!",
            "via_bank_transfer": "Transferencia bancaria",
            "litecoin_alt": "Donar vía Litecoin",
            "flattr_alt": "Donar vía Flattr",
            "paypal_alt": "Donar vía PayPal",
            "liberapay_alt": "Donar vía Liberapay",
            "heading": "Donar",
            "hellotux": "👕 Camisetas 👕 de",
            "hellotux_alt": "HELLOTUX",
            "hellotux_donation": "F-Droid recibirá 3 € por cada camiseta vendida."
        },
        "last_updated": {
            "heading": "Última actualización"
        }
    }
}
